{
  "texto": "En relación con los probes de Kubernetes: ¿de qué tipo son los que se usan para saber si un pod está en un estado saludable y en caso contrario K8s lo reiniciará de forma automática?",
  "explicacion": "Los probes son Liveness, Readiness y Startup. Readiness lo usa K8s para saber cuando está disponible y en ese caso enviar tráfico al pod. Startup se usa para ver cuando la aplicación está iniciada ya que de usar los anteriores podrían interferir en el correcto funcionamiento de los pods.",
  "respostas": [
    {
      "texto": "Liveness Probe",
      "correcta": true
    },
    {
      "texto": "Readiness Probe",
      "correcta": false
    },
    {
      "texto": "Startup Probe",
      "correcta": false
    },
    {
      "texto": "Health Probe",
      "correcta": false
    }
  ]
}